{
    "version": "1.1.10-preview",
    "unity": "2018.1",
    "dependencies": {
        "com.unity.postprocessing": "2.0.7-preview"
    },
    "subPackages": [
        "Core",
        "HDRenderPipeline",
        "LightweightPipeline"
    ]
}
