%YAML 1.1
%TAG !u! tag:unity3d.com,2011:
--- !u!21 &2100000
Material:
  serializedVersion: 6
  m_ObjectHideFlags: 0
  m_CorrespondingSourceObject: {fileID: 0}
  m_PrefabInternal: {fileID: 0}
  m_Name: Lightweight-Default
  m_Shader: {fileID: 4800000, guid: 84f5c438025452c45817eabb4ed390f8, type: 3}
  m_ShaderKeywords: 
  m_LightmapFlags: 6
  m_EnableInstancingVariants: 0
  m_DoubleSidedGI: 0
  m_CustomRenderQueue: -1
  stringTagMap: {}
  disabledShaderPasses:
  - ALWAYS
  m_SavedProperties:
    serializedVersion: 3
    m_TexEnvs:
    - _AlphaTex:
        m_Texture: {fileID: 0}
        m_Scale: {x: 1, y: 1}
        m_Offset: {x: 0, y: 0}
    - _BumpMap:
        m_Texture: {fileID: 0}
        m_Scale: {x: 1, y: 1}
        m_Offset: {x: 0, y: 0}
    - _Cube:
        m_Texture: {fileID: 0}
        m_Scale: {x: 1, y: 1}
        m_Offset: {x: 0, y: 0}
    - _DepthInput:
        m_Texture: {fileID: 8400000, guid: 2ae2f4390a6dba34187437ec3cc5d5f6, type: 2}
        m_Scale: {x: 1, y: 1}
        m_Offset: {x: 0, y: 0}
    - _DetailAlbedoMap:
        m_Texture: {fileID: 0}
        m_Scale: {x: 1, y: 1}
        m_Offset: {x: 0, y: 0}
    - _DetailMask:
        m_Texture: {fileID: 0}
        m_Scale: {x: 1, y: 1}
        m_Offset: {x: 0, y: 0}
    - _DetailNormalMap:
        m_Texture: {fileID: 0}
        m_Scale: {x: 1, y: 1}
        m_Offset: {x: 0, y: 0}
    - _EmissionMap:
        m_Texture: {fileID: 0}
        m_Scale: {x: 1, y: 1}
        m_Offset: {x: 0, y: 0}
    - _MainTex:
        m_Texture: {fileID: 0}
        m_Scale: {x: 1, y: 1}
        m_Offset: {x: 0, y: 0}
    - _MetallicGlossMap:
        m_Texture: {fileID: 0}
        m_Scale: {x: 1, y: 1}
        m_Offset: {x: 0, y: 0}
    - _MetallicSpecGlossMap:
        m_Texture: {fileID: 0}
        m_Scale: {x: 1, y: 1}
        m_Offset: {x: 0, y: 0}
    - _OcclusionMap:
        m_Texture: {fileID: 0}
        m_Scale: {x: 1, y: 1}
        m_Offset: {x: 0, y: 0}
    - _ParallaxMap:
        m_Texture: {fileID: 0}
        m_Scale: {x: 1, y: 1}
        m_Offset: {x: 0, y: 0}
    - _Pattern1:
        m_Texture: {fileID: 0}
        m_Scale: {x: 1, y: 1}
        m_Offset: {x: 0, y: 0}
    - _SpecGlossMap:
        m_Texture: {fileID: 0}
        m_Scale: {x: 1, y: 1}
        m_Offset: {x: 0, y: 0}
    m_Floats:
    - PixelSnap: 0
    - _AlphaClip: 0
    - _Blend: 0
    - _BlendOp: 0
    - _BumpScale: 1
    - _CameraFadingEnabled: 0
    - _CameraFarFadeDistance: 2
    - _CameraNearFadeDistance: 1
    - _ColorMask: 15
    - _ColorMode: 1
    - _Cull: 2
    - _Cutoff: 0.5
    - _DetailNormalMapScale: 1
    - _Dissolve: 1
    - _DstBlend: 0
    - _EmissionEnabled: 0
    - _EmissionScaleUI: 0
    - _EnableExternalAlpha: 0
    - _FlipbookMode: 0
    - _GlossMapScale: 1
    - _Glossiness: 1
    - _GlossinessSource: 0
    - _GlossyReflections: 1
    - _InvFade: 1
    - _LightingEnabled: 1
    - _Metallic: 0.2
    - _Mode: 3
    - _OcclusionStrength: 1
    - _Opacity: 0.3
    - _Parallax: 0.02
    - _ReflectionSource: 0
    - _SampleGI: 0
    - _ShadowDistance: 8
    - _Shininess: 1
    - _SmoothnessTextureChannel: 0
    - _SoftParticlesEnabled: 0
    - _SoftParticlesFarFadeDistance: 1
    - _SoftParticlesNearFadeDistance: 0
    - _SpecSource: 0
    - _SpecularHighlights: 1
    - _SrcBlend: 1
    - _Stencil: 0
    - _StencilComp: 8
    - _StencilOp: 0
    - _StencilReadMask: 255
    - _StencilWriteMask: 255
    - _Surface: 0
    - _UVSec: 0
    - _UseUIAlphaClip: 0
    - _WorkflowMode: 1
    - _ZWrite: 1
    m_Colors:
    - _CameraFadeParams: {r: 0, g: Infinity, b: 0, a: 0}
    - _Color: {r: 0.65882355, g: 0.6784314, b: 0.69411767, a: 1}
    - _ColorAddSubDiff: {r: 1, g: 0, b: 0, a: 0}
    - _DecalPos: {r: 0, g: 0, b: 0, a: 1}
    - _DissovleColor: {r: 0.4, g: 0.7, b: 0.99, a: 1}
    - _EmissionColor: {r: 0, g: 0, b: 0, a: 1}
    - _EmissionColorUI: {r: 1, g: 1, b: 1, a: 1}
    - _Flip: {r: 1, g: 1, b: 1, a: 1}
    - _RendererColor: {r: 1, g: 1, b: 1, a: 1}
    - _SoftParticleFadeParams: {r: 0, g: 0, b: 0, a: 0}
    - _SpecColor: {r: 1, g: 1, b: 1, a: 1}
    - _TintColor: {r: 1, g: 1, b: 1, a: 1}
